%!PS

% random number between (0 1)
/r{
  rand dup rand exch mod exch div
} def

% displaced point between two points
/midpoint {
  add 2 div exch r .5 sub mul add
} def

/draw {				%x1 y1 x2 y2 depth displace
  dup 9 lt {
    exch pop
    50 div setlinewidth

    0 .7 r .1 add 1. exch div setrgbcolor
 
    newpath
      moveto lineto
    stroke

  } {
    9 dict begin
      /displace exch def
      1 add /depth exch def
      /y2 exch def
      /x2 exch def
      /y1 exch def
      /x1 exch def

      /d displace 2 div def

      /mx d x1 x2 midpoint def
      /my d y1 y2 midpoint def

      % setup the stack but exec outside of the dict
      x1 y1 mx my depth d 
      x2 y2 mx my depth d

      depth 2 mod 0 eq {
	x1 y1 x2 y2 depth displace
	3
      } {
	2
      } ifelse
    end
    {draw} repeat
  } ifelse
} def

300 500 translate

30 0 0 30
10 {4 copy 0 1000 draw } repeat

showpage
